{
    "body": "{
        \"event\": \"interactHeader\",
        \"eventId\": 2359831603285284690,
        \"utcTimestampMs\": 1638312248179,
        \"serverUtcTimestampMs\": 1638312248887,
        \"properties\": {
            \"userId\": \"61a6a93291d43ddf2b16491a\",
            \"deviceId\": \"2eafc7be-40a7-43b2-bce5-b719cbef333a\",
            \"thestralFeatures\": {
            \"enableCheckoutV2\": \"on\",
            \"enableCheckoutActionsV2\": \"on\",
            \"enableHolidayNav21\": \"on\",
            \"enableHalloweenNav\": \"off\",
            \"enableHomePageGate\": \"off\",
            \"enableHomepageImageSoftGate\": \"on\",
            \"infraCartUseSlsFirebaseWritesEnabled\": \"on\",
            \"enableSeasonalLogo\": \"winterHoliday\",
            \"enableWebPendingPoints\": \"on\",
            \"backendPurchaseEventEnabled\": \"off\",
            \"enableCoinbase\": \"on\",
            \"enableAutoSavePdpAtc\": \"on\",
            \"showAutoSaveNewTag\": \"on\",
            \"autoSaveCategoryFilter\": \"on\",
            \"uniqueCartVariantFvfmEnabled\": \"off\",
            \"enableAutoSavePleEntry\": \"on\",
            \"enableBoxedUpSku\": \"on\",
            \"hideAccountInviteMobile\": \"off\",
            \"webPostOrderAttach\": \"on\",
            \"showGlobalPromotionsForBusinessUsers\": \"on\",
            \"enableProductPageGate\": \"on\",
            \"enableCategoryPageGate\": \"on\",
            \"enableCartV3\": \"on\",
            \"autoSaveSubscriptionsGallery\": \"604|460\",
            \"enableAutoSaveShipNow\": \"on\",
            \"enableLoyaltyFeatures\": \"on\",
            \"iosTrackUserUsage\": \"all\",
            \"syntheticInventoryFromPLM\": \"on\",
            \"iosPostOrderAttach\": \"on\",
            \"enableDirectPLM\": \"on\",
            \"upNonMemberLandingPageTest\": \"50\",
            \"mobilePostOrderAttach\": \"on\",
            \"purchaseVariantEvent\": \"orderFulfillable\",
            \"cashRewardsMessage\": \"Earn 2% back on every purchase to spend later.\",
            \"enablePLEV2\": \"on\",
            \"enableProductListV2\": \"on\",
            \"dataDome\": \"on\",
            \"sanathTest\": \"createOrder\",
            \"apruveOauthEnabled\": \"on\",
            \"boxedUpCashRewards\": \"on\",
            \"dynamicInventory\": \"off\",
            \"boxedUpMaxCartQuantity\": \"on\",
            \"enableStateShoppingBan\": \"off\",
            \"enableExitSurvey\": \"off\",
            \"enableExitIntent\": \"on\",
            \"fastlyNextDayDelivery\": \"on\",
            \"newOrderDetailsEnabled\": \"on\",
            \"automationTestThestral14\": \"off\",
            \"fastlyExpressWarehouseForState\": \"on\",
            \"fastlyFindAllWarehouse\": \"on\",
            \"fastlyFindAllOrders\": \"on\",
            \"fastlyFindByClientType\": \"on\",
            \"fastlyFindAllProductListEntities\": \"off\",
            \"fastlyVariantsGetExpirationDate\": \"on\",
            \"enableExitNewUser\": \"on\",
            \"enableShippingFeesTest\": \"on\",
            \"categoryLite\": \"on\",
            \"donationEnabled\": \"on\",
            \"enablePostAddToCart\": \"on\",
            \"emptycartad\": \"off\",
            \"standardCategoryGroup\": \"5ba5399dc1e9750100c1347f\",
            \"personalizedSortingForCoupons\": \"on\",
            \"personalizedAdsPDP\": \"off\",
            \"excludeRedeemedCouponsFromClientResponse\": \"on\",
            \"gateTest\": \"off\",
            \"personalizedAdsHomepage\": \"on\",
            \"enableLeaveCheckoutSearch\": \"on\",
            \"enableSampleUpsell\": \"off\",
            \"disableMobileAppleSignIn\": \"off\",
            \"enableCoupons\": \"on\",
            \"businessAccountPermissions\": \"off\",
            \"cacheBsTracking\": \"on\",
            \"prunedPriceModifiers\": \"on\",
            \"inviteCodeUsageEnabled\": \"on\",
            \"enableCheckoutTotalAlert\": \"on\",
            \"attachCouponIdToCartVariants\": \"on\",
            \"enablePersonalizedModule\": \"on\",
            \"dynamicFulfillment\": \"on\",
            \"switchToCartRecommendation\": \"on\",
            \"plmPricing\": \"on\",
            \"holdenDatadogTest\": \"off\",
            \"Holden test\": \"blue\",
            \"dynamicInventoryTEST\": \"off\",
            \"silentCartVerify\": \"on\",
            \"useTestRec\": \"off\",
            \"enableCartBuilder\": \"on\",
            \"enableSurchargeSiteMessage\": \"on\",
            \"debounceCartRefresh\": \"15000\",
            \"showHomeModuleRedesign\": \"on\",
            \"disableGeolocation\": \"on\",
            \"deliveryDelay\": \"3\",
            \"homepageCache\": \"off\",
            \"loggedInFlagTest\": \"on\",
            \"luckyCustomerSession\": \"15000\",
            \"showCovidExpressMessaging\": \"on\",
            \"homeSectionTestMobile\": \"on\",
            \"multiFulfiller\": \"on\",
            \"strictPasswordRequirementsWeb\": \"on\",
            \"enableBoxedSubscriptions\": \"on\",
            \"pdpDeliveryMessaging\": \"off\",
            \"checkoutV2\": \"on\",
            \"showReplenishments\": \"on\",
            \"pleVariantTest\": \"on\",
            \"promoVariantCart\": \"on\",
            \"shippingMiddlewareCache\": \"on\",
            \"emailRollout\": \"on\",
            \"extensions\": \"on\",
            \"traceCartCtrlChange\": \"on\",
            \"shopTab\": \"2\",
            \"iosFilters\": \"off\",
            \"yourItems\": \"off\",
            \"pnPriming\": \"on\",
            \"standardCategoryGroupMobile\": \"5ba5399dc1e9750100c1347f\",
            \"colourChange\": \"0\",
            \"reorderSort\": \"replen\",
            \"iosCart\": \"ia\",
            \"plesAutoComplete\": \"on\",
            \"plesMicroservice\": \"on\",
            \"mastercardWorldEliteEnabled\": \"on\",
            \"navRestructure\": \"on\",
            \"ftueVid\": \"on\",
            \"showInterestWordAlert\": \"on\",
            \"showComplementVariants\": \"on\",
            \"groupOrder\": \"on\",
            \"amexCheckout\": \"on\",
            \"brandFilter\": \"on\",
            \"boxedPlus\": \"on\",
            \"payItForward\": \"true\",
            \"smartCart\": \"on\",
            \"affinityItems\": \"on\",
            \"dallas\": \"on\",
            \"newFTUEAndroid\": \"on\",
            \"boxTops\": \"on\",
            \"augmentedReality\": \"on\",
            \"googlePay\": \"on\",
            \"googleSignIn\": \"on\",
            \"featuredTab\": \"kevin\",
            \"pdpRefresh\": \"2\",
            \"homeV2\": \"on\",
            \"UPMobileCart\": \"on\",
            \"cartResolverPlacement\": \"appStart\",
            \"disableRegistrationEmails\": \"on\",
            \"dynamicFulfillmentPricing\": \"on\",
            \"upCatBanner\": \"3\"
            },
            \"hasCookiedEmail\": true,
            \"appVersion\": \"2.0\",
            \"postalCode\": \"07083\",
            \"utm_medium\": null,
            \"userAgent.browser\": \"Chrome\",
            \"utm_experiment\": null,
            \"manufacturer\": \"Web\",
            \"userAgent.os\": \"Linux\",
            \"queryParameters\": {},
            \"osVersion\": \"92\",
            \"userAgent.string\": \"Mozilla/5.0 (X11; Linux x86_64) AppleWebKit/537.36 (KHTML, like Gecko) Chrome/92.0.4515.107 Safari/537.36\",
            \"utm_purpose\": null,
            \"text\": \"Account Icon\",
            \"utm_ad_id\": null,
            \"remoteAddress\": \"10.41.14.3\",
            \"utm_content\": null,
            \"headerIntent\": 1,
            \"utm_target\": null,
            \"os\": \"Chrome\",
            \"utm_campaign\": null,
            \"webSlugConfigId\": \"5cd9da7f7d3bec9e6465561c\",
            \"appRelease\": \"1.0\",
            \"hasPurchasedBefore\": \"false\",
            \"userAgent\": \"Mozilla/5.0 (X11; Linux x86_64) AppleWebKit/537.36 (KHTML, like Gecko) Chrome/92.0.4515.107 Safari/537.36\",
            \"sessionId\": \"2eafc7be-40a7-43b2-bce5-b719cbef333a-1638312212779\",
            \"membershipStatus\": 0,
            \"userAgent.device\": \"Other\",
            \"utm_term\": null,
            \"currentCartSharedId\": null,
            \"headerPlacement\": 0,
            \"isReprocessed\": false,
            \"bsProperties\": {
            \"postalCode\": \"07083\",
            \"expressWarehouseId\": \"556f61b4c68de4cc6b0023bf\",
            \"standardWarehouseId\": \"53c410ee674f19082d000029\"
            },
            \"isLoggedIn\": true,
            \"shouldAutoRenew\": true,
            \"page\": \"/\",
            \"libVersion\": \"1.0.0\",
            \"utm_source\": null
        }
    }",
    "resource": "/{proxy+}",
    "path": "/path/to/resource",
    "httpMethod": "POST",
    "isBase64Encoded": false,
    "queryStringParameters": {
      "foo": "bar"
    },
    "pathParameters": {
      "proxy": "/path/to/resource"
    },
    "stageVariables": {
      "baz": "qux"
    },
    "headers": {
      "Accept": "text/html,application/xhtml+xml,application/xml;q=0.9,image/webp,*/*;q=0.8",
      "Accept-Encoding": "gzip, deflate, sdch",
      "Accept-Language": "en-US,en;q=0.8",
      "Cache-Control": "max-age=0",
      "CloudFront-Forwarded-Proto": "https",
      "CloudFront-Is-Desktop-Viewer": "true",
      "CloudFront-Is-Mobile-Viewer": "false",
      "CloudFront-Is-SmartTV-Viewer": "false",
      "CloudFront-Is-Tablet-Viewer": "false",
      "CloudFront-Viewer-Country": "US",
      "Host": "1234567890.execute-api.us-east-1.amazonaws.com",
      "Upgrade-Insecure-Requests": "1",
      "User-Agent": "Custom User Agent String",
      "Via": "1.1 08f323deadbeefa7af34d5feb414ce27.cloudfront.net (CloudFront)",
      "X-Amz-Cf-Id": "cDehVQoZnx43VYQb9j2-nvCh-9z396Uhbp027Y2JvkCPNLmGJHqlaA==",
      "X-Forwarded-For": "127.0.0.1, 127.0.0.2",
      "X-Forwarded-Port": "443",
      "X-Forwarded-Proto": "https"
    },
    "requestContext": {
      "accountId": "123456789012",
      "resourceId": "123456",
      "stage": "prod",
      "requestId": "c6af9ac6-7b61-11e6-9a41-93e8deadbeef",
      "requestTime": "09/Apr/2015:12:34:56 +0000",
      "requestTimeEpoch": 1428582896000,
      "identity": {
        "cognitoIdentityPoolId": null,
        "accountId": null,
        "cognitoIdentityId": null,
        "caller": null,
        "accessKey": null,
        "sourceIp": "127.0.0.1",
        "cognitoAuthenticationType": null,
        "cognitoAuthenticationProvider": null,
        "userArn": null,
        "userAgent": "Custom User Agent String",
        "user": null
      },
      "path": "/prod/path/to/resource",
      "resourcePath": "/{proxy+}",
      "httpMethod": "POST",
      "apiId": "1234567890",
      "protocol": "HTTP/1.1"
    }
  }
  